%YAML 1.1
%TAG !u! tag:unity3d.com,2011:
--- !u!1045 &1
EditorBuildSettings:
  m_ObjectHideFlags: 0
  serializedVersion: 2
  m_Scenes:
  - enabled: 1
    path: Assets/___Scenes/_AI Test Scene (All).unity
    guid: c042c61c67a7c4134afbcbfe80febb42
  m_configObjects: {}
