%YAML 1.1
%TAG !u! tag:unity3d.com,2011:
--- !u!114 &11400000
MonoBehaviour:
  m_ObjectHideFlags: 0
  m_CorrespondingSourceObject: {fileID: 0}
  m_PrefabInstance: {fileID: 0}
  m_PrefabAsset: {fileID: 0}
  m_GameObject: {fileID: 0}
  m_Enabled: 1
  m_EditorHideFlags: 0
  m_Script: {fileID: 11500000, guid: c2e02dfc4e4094ecf81c121f5554e224, type: 3}
  m_Name: CS_JGB_Merchant_SO
  m_EditorClassIdentifier: 
  captainName: CS_JGB_Merchant_SO
  minPercentOfMapToTraverse: 30
  useDiagonalNavigation: 1
  navPointIsCloseEnough: 10
  varianceOnStraightLines: 20
  navPath: []
